gprofiler • aggrid
…
      Source: vignettes/Demos/gprofiler.Rmd
      gprofiler.Rmd

# Example datasets
go_mf <- gprofiler_data |> 
  filter(source == "GO:MF")
go_mf
#> # A tibble: 22 × 25
#>    source term_name  term_id highlighted  p_value `−log10(pval)` ENSG00000184983
#>    <chr>  <chr>      <chr>   <lgl>          <dbl>          <dbl> <chr>          
#>  1 GO:MF  ion chann… GO:000… TRUE        4.07e-10           9.39 NA             
#>  2 GO:MF  channel i… GO:001… FALSE       4.73e-10           9.33 NA             
#>  3 GO:MF  potassium… GO:001… FALSE       5.05e- 8           7.30 NA             
#>  4 GO:MF  NADH dehy… GO:000… TRUE        8.38e- 8           7.08 TAS NAS        
#>  5 GO:MF  NADH dehy… GO:005… FALSE       9.51e- 8           7.02 TAS NAS        
#>  6 GO:MF  NADH dehy… GO:000… FALSE       1.21e- 7           6.92 TAS NAS        
#>  7 GO:MF  NAD(P)H d… GO:000… FALSE       1.36e- 7           6.87 TAS NAS        
#>  8 GO:MF  oxidoredu… GO:001… FALSE       4.64e- 7           6.33 TAS NAS        
#>  9 GO:MF  oxidoredu… GO:001… FALSE       9.85e- 7           6.01 TAS NAS        
#> 10 GO:MF  ion chann… GO:009… FALSE       1.18e- 6           5.93 NA             
#> # ℹ 12 more rows
#> # ℹ 18 more variables: ENSG00000198888 <chr>, ENSG00000119013 <chr>,
#> #   ENSG00000212907 <chr>, ENSG00000109390 <chr>, ENSG00000105974 <chr>,
#> #   ENSG00000134240 <chr>, ENSG00000136869 <chr>, ENSG00000196632 <chr>,
#> #   ENSG00000119782 <chr>, ENSG00000101680 <chr>, ENSG00000168610 <chr>,
#> #   ENSG00000126562 <chr>, ENSG00000054148 <chr>, ENSG00000160439 <chr>,
#> #   ENSG00000171497 <chr>, ENSG00000126787 <chr>, ENSG00000256060 <chr>, …
…
